<?xml version="1.0" encoding="UTF-8" standalone="no"?>
<svg
   xmlns:i="http://ns.adobe.com/AdobeIllustrator/10.0/"
   xmlns:dc="http://purl.org/dc/elements/1.1/"
   xmlns:cc="http://creativecommons.org/ns#"
   xmlns:rdf="http://www.w3.org/1999/02/22-rdf-syntax-ns#"
   xmlns:svg="http://www.w3.org/2000/svg"
   xmlns="http://www.w3.org/2000/svg"
   xmlns:sodipodi="http://sodipodi.sourceforge.net/DTD/sodipodi-0.dtd"
   xmlns:inkscape="http://www.inkscape.org/namespaces/inkscape"
   version="1.1"
   x="0px"
   y="0px"
   viewBox="0 0 95.598954 98.49894"
   xml:space="preserve"
   id="svg30"
   sodipodi:docname="entraide.svg"
   width="95.598953"
   height="98.49894"
   inkscape:version="0.92.1 r15371"><metadata
     id="metadata36"><rdf:RDF><cc:Work
         rdf:about=""><dc:format>image/svg+xml</dc:format><dc:type
           rdf:resource="http://purl.org/dc/dcmitype/StillImage" /><dc:title></dc:title></cc:Work></rdf:RDF></metadata><defs
     id="defs34"><clipPath
       clipPathUnits="userSpaceOnUse"
       id="clipPath4515"><rect
         style="opacity:1;fill:none;fill-opacity:1;stroke:#000000;stroke-width:6.92409468;stroke-linecap:butt;stroke-linejoin:round;stroke-miterlimit:4;stroke-dasharray:none;stroke-dashoffset:0;stroke-opacity:1;paint-order:stroke fill markers"
         id="rect4517"
         width="97.457626"
         height="100.10593"
         x="1.5889831"
         y="-1.059322" /></clipPath></defs><sodipodi:namedview
     pagecolor="#ffffff"
     bordercolor="#666666"
     borderopacity="1"
     objecttolerance="10"
     gridtolerance="10"
     guidetolerance="10"
     inkscape:pageopacity="0"
     inkscape:pageshadow="2"
     inkscape:window-width="1360"
     inkscape:window-height="713"
     id="namedview32"
     showgrid="false"
     fit-margin-top="0.9"
     fit-margin-left="0.5"
     fit-margin-right="0"
     fit-margin-bottom="0.6"
     inkscape:zoom="3.776"
     inkscape:cx="-12.568761"
     inkscape:cy="32.045921"
     inkscape:window-x="0"
     inkscape:window-y="0"
     inkscape:window-maximized="1"
     inkscape:current-layer="g20" /><switch
     id="switch24"
     clip-path="url(#clipPath4515)"
     transform="translate(-2.3883403,-0.54766032)"><foreignObject
       requiredExtensions="http://ns.adobe.com/AdobeIllustrator/10.0/"
       x="0"
       y="0"
       width="1"
       height="1" /><g
       i:extraneous="self"
       id="g22"><g
         id="g10"><path
           d="m 5273.1,2400.1 v -2 c 0,-2.8 -5,-4 -9.7,-4 -4.7,0 -9.7,1.3 -9.7,4 v 2 c 0,1.8 0.7,3.6 2,4.9 l 5,4.9 c 0.3,0.3 0.4,0.6 0.4,1 v 6.4 c 0,0.4 0.2,0.7 0.6,0.8 l 2.9,0.9 c 0.5,0.1 1,-0.2 1,-0.8 v -7.2 c 0,-0.4 0.2,-0.7 0.4,-1 l 5.1,-5 c 1.3,-1.3 2,-3.1 2,-4.9 z m -9.7,-0.1 c -4.8,0 -7.4,-1.3 -7.5,-1.8 v 0 c 0.1,-0.5 2.7,-1.8 7.5,-1.8 4.8,0 7.3,1.3 7.5,1.8 -0.2,0.5 -2.7,1.8 -7.5,1.8 z"
           id="path2"
           inkscape:connector-curvature="0" /><path
           d="m 5268.4,2410.3 c -0.6,0 -1,0.4 -1,1 0,0.6 0.4,1 1,1 h 4.3 c 0.6,0 1,-0.4 1,-1 0,-0.6 -0.4,-1 -1,-1 z"
           id="path4"
           inkscape:connector-curvature="0" /><path
           d="m 5272.7,2413.7 h -4.3 c -0.6,0 -1,0.4 -1,1 0,0.6 0.4,1 1,1 h 4.3 c 0.6,0 1,-0.4 1,-1 0,-0.6 -0.4,-1 -1,-1 z"
           id="path6"
           inkscape:connector-curvature="0" /><path
           d="m 5272.7,2417 h -4.3 c -0.6,0 -1,0.4 -1,1 0,0.6 0.4,1 1,1 h 4.3 c 0.6,0 1,-0.4 1,-1 0,-0.5 -0.4,-1 -1,-1 z"
           id="path8"
           inkscape:connector-curvature="0" /></g><g
         id="g20"><path
           d="M 53.2,67.8 C 52.3,66.6 50.5,66.4 49.3,67.3 L 39.5,75 c -0.4,0.3 -0.9,0.2 -1.2,-0.1 v 0 C 38,74.6 38,74 38.4,73.7 L 50.3,62.8 c 1.1,-1 1.2,-2.8 0.2,-3.9 -1,-1.1 -2.8,-1.2 -3.9,-0.2 l -12,11 c -0.3,0.3 -0.9,0.3 -1.2,-0.1 -0.3,-0.3 -0.3,-0.8 0,-1.1 l 12.4,-14 c 1,-1.1 0.9,-2.9 -0.2,-3.9 -1.1,-1 -2.9,-0.9 -3.9,0.2 L 29.8,64.2 c -0.3,0.4 -0.9,0.4 -1.3,0 L 28.3,64 C 28,63.7 28,63.3 28.2,62.9 l 8.6,-12.2 c 0.9,-1.2 0.6,-3 -0.7,-3.9 -1.2,-0.9 -3,-0.6 -3.8,0.7 0,0 -6.9,10 -8.5,12 -1.6,2 -2.5,3.2 -4,4.9 -0.9,0.9 -2.2,0.8 -2.2,-1 0,0 0.4,-3.7 0.4,-5.7 0,-2 -0.7,-3.3 -2.3,-3.7 -1.7,-0.4 -3.4,0.7 -3.7,2.5 0,0 -2.7,11.1 -2.9,16.6 -0.1,1.7 0,3.7 0.7,5.2 L 4,85.2 c -0.8,0.9 -0.7,2.2 0.1,3.1 l 8.6,8.6 c 0.8,0.8 2.2,0.9 3.1,0.1 l 6.9,-5.9 c 3.6,1.4 7.3,-2 11.4,-5.1 5,-3.8 18.6,-14.3 18.6,-14.3 1.2,-0.9 1.4,-2.7 0.5,-3.9 z"
           id="path12"
           inkscape:connector-curvature="0"
           style="fill:#a46708;fill-opacity:1" /><path
           d="M 95.9,11.8 87.3,3.2 C 86.5,2.4 85.1,2.3 84.2,3.1 L 77.3,9 c -3.6,-1.4 -7.3,2 -11.4,5.1 -5,3.8 -18.6,14.3 -18.6,14.3 -1.2,0.9 -1.4,2.7 -0.5,3.9 0.9,1.2 2.7,1.4 3.9,0.5 l 9.8,-7.7 c 0.4,-0.3 0.9,-0.2 1.2,0.1 v 0 c 0.3,0.3 0.3,0.9 -0.1,1.2 L 49.8,37.1 c -1.1,1 -1.2,2.8 -0.2,3.9 1,1.1 2.8,1.2 3.9,0.2 L 65.4,30.3 c 0.3,-0.3 0.9,-0.3 1.2,0.1 0.3,0.3 0.3,0.8 0,1.1 l -12.4,14 c -1,1.1 -0.9,2.9 0.2,3.9 1.1,1 2.9,0.9 3.9,-0.2 L 70.1,35.8 c 0.3,-0.4 0.9,-0.4 1.3,0 l 0.2,0.2 c 0.3,0.3 0.3,0.7 0.1,1.1 l -8.6,12.2 c -0.9,1.2 -0.6,3 0.7,3.9 1.2,0.9 3,0.6 3.9,-0.7 0,0 6.9,-10 8.5,-12 1.6,-2 2.5,-3.2 4,-4.9 0.9,-0.9 2.2,-0.8 2.2,1 0,0 -0.4,3.7 -0.4,5.7 0,2 0.7,3.3 2.3,3.7 1.7,0.4 3.4,-0.7 3.7,-2.5 0,0 2.7,-11.1 2.9,-16.6 0.1,-1.7 0,-3.7 -0.7,-5.2 L 95.9,15 c 0.9,-1.1 0.8,-2.4 0,-3.2 z"
           id="path14"
           inkscape:connector-curvature="0"
           style="fill:#a46708;fill-opacity:1" /><path
           d="m 12.8,48 c 0.3,0 0.5,0 0.8,-0.1 1.4,-0.4 2.1,-1.9 1.7,-3.3 -0.7,-2.2 -1.1,-4.4 -1.1,-6.7 0,-11.9 9.7,-21.6 21.6,-21.6 h 4 l -3.4,3.4 c -1,1 -1,2.7 0,3.7 0.5,0.5 1.2,0.8 1.8,0.8 0.7,0 1.3,-0.3 1.8,-0.8 l 7.9,-7.9 c 0.5,-0.5 0.8,-1.2 0.8,-1.8 0,-0.6 -0.3,-1.4 -0.8,-1.8 L 40,4 c -1,-1 -2.7,-1 -3.7,0 -1,1 -1,2.7 0,3.7 l 3.4,3.4 h -4 C 21.1,11 9,23 9,37.8 c 0,2.8 0.4,5.7 1.3,8.3 0.4,1.2 1.4,1.9 2.5,1.9 z"
           id="path16"
           inkscape:connector-curvature="0"
           style="fill:#f4c22d;fill-opacity:1" /><path
           d="m 86.3,52.2 c -1.4,0.4 -2.1,1.9 -1.7,3.3 0.7,2.2 1.1,4.4 1.1,6.7 0,11.9 -9.7,21.6 -21.6,21.6 h -4 l 3.4,-3.4 c 1,-1 1,-2.7 0,-3.7 -1,-1 -2.7,-1 -3.7,0 L 52,84.5 c -0.5,0.5 -0.8,1.2 -0.8,1.8 0,0.6 0.3,1.4 0.8,1.8 l 7.9,7.9 c 0.5,0.5 1.2,0.8 1.8,0.8 0.7,0 1.3,-0.3 1.8,-0.8 1,-1 1,-2.7 0,-3.7 L 60.2,89 h 4 C 79,89 91,77 91,62.2 c 0,-2.8 -0.4,-5.7 -1.3,-8.3 -0.5,-1.4 -2,-2.2 -3.4,-1.7 z"
           id="path18"
           inkscape:connector-curvature="0"
           style="fill:#f4c22d;fill-opacity:1" /></g></g></switch><text
     x="-3.4476624"
     y="114.45234"
     font-size="5px"
     font-weight="bold"
     id="text26"
     style="font-weight:bold;font-size:5px;font-family:'Helvetica Neue', Helvetica, Arial-Unicode, Arial, Sans-serif;fill:#000000" />
</svg>