<?xml version="1.0" encoding="UTF-8" standalone="no"?>
<svg
   xmlns:dc="http://purl.org/dc/elements/1.1/"
   xmlns:cc="http://creativecommons.org/ns#"
   xmlns:rdf="http://www.w3.org/1999/02/22-rdf-syntax-ns#"
   xmlns:svg="http://www.w3.org/2000/svg"
   xmlns="http://www.w3.org/2000/svg"
   xmlns:sodipodi="http://sodipodi.sourceforge.net/DTD/sodipodi-0.dtd"
   xmlns:inkscape="http://www.inkscape.org/namespaces/inkscape"
   version="1.1"
   x="0px"
   y="0px"
   viewBox="0 0 84 84.000038"
   id="svg10"
   sodipodi:docname="find.svg"
   width="84"
   height="84.000038"
   inkscape:version="0.92.1 r15371">
  <metadata
     id="metadata16">
    <rdf:RDF>
      <cc:Work
         rdf:about="">
        <dc:format>image/svg+xml</dc:format>
        <dc:type
           rdf:resource="http://purl.org/dc/dcmitype/StillImage" />
        <dc:title></dc:title>
      </cc:Work>
    </rdf:RDF>
  </metadata>
  <defs
     id="defs14">
    <clipPath
       clipPathUnits="userSpaceOnUse"
       id="clipPath4527">
      <ellipse
         style="opacity:1;fill:none;fill-opacity:1;stroke:#000000;stroke-width:97.10769653;stroke-linecap:butt;stroke-linejoin:round;stroke-miterlimit:4;stroke-dasharray:none;stroke-dashoffset:0;stroke-opacity:1;paint-order:stroke fill markers"
         id="ellipse4529"
         cx="258.47049"
         cy="372.67319"
         rx="287.8461"
         ry="280.41782" />
    </clipPath>
  </defs>
  <sodipodi:namedview
     pagecolor="#ffffff"
     bordercolor="#666666"
     borderopacity="1"
     objecttolerance="10"
     gridtolerance="10"
     guidetolerance="10"
     inkscape:pageopacity="0"
     inkscape:pageshadow="2"
     inkscape:window-width="1360"
     inkscape:window-height="713"
     id="namedview12"
     showgrid="false"
     fit-margin-top="0"
     fit-margin-left="0"
     fit-margin-right="0"
     fit-margin-bottom="0"
     inkscape:zoom="2.6700352"
     inkscape:cx="-71.55432"
     inkscape:cy="40.225396"
     inkscape:window-x="0"
     inkscape:window-y="0"
     inkscape:window-maximized="1"
     inkscape:current-layer="g4" />
  <g
     transform="translate(-8,-960.33817)"
     id="g4">
    <g
       transform="matrix(0.09174644,0,0,0.09174644,13.309722,954.87597)"
       id="Calque_4"
       clip-path="url(#clipPath4527)">
      <polygon
         class="st0"
         points="169.9,314.8 255.4,284 331,120.5 505.4,604.4 144.8,604.4 13.5,240.1 "
         id="polygon4"
         style="fill:#f0980c;fill-opacity:1" />
      <polygon
         class="st1"
         points="66.1,357.3 28.9,264 95.8,355 "
         id="polygon6"
         style="fill:#a46708;fill-opacity:1" />
      <polyline
         class="st1"
         points="364.1,244.3 329.6,150 340.6,262.8  "
         id="polyline8"
         style="fill:#a46708;fill-opacity:1" />
      <circle
         transform="matrix(0.9877,-0.1564,0.1564,0.9877,-59.4858,58.6365)"
         class="st2"
         cx="342.89999"
         cy="407.29999"
         id="ellipse10"
         r="55.700001"
         style="fill:#ffffff" />
      <ellipse
         transform="matrix(0.9877,-0.1564,0.1564,0.9877,-59.7545,58.7579)"
         class="st1"
         cx="343.5"
         cy="409.10001"
         rx="29.700001"
         ry="37.099998"
         id="ellipse12"
         style="fill:#a46708;fill-opacity:1" />
      <circle
         transform="matrix(0.9877,-0.1564,0.1564,0.9877,-70.4956,34.5851)"
         class="st2"
         cx="184.5"
         cy="465.20001"
         id="ellipse14"
         r="55.700001"
         style="fill:#ffffff" />
      <polygon
         class="st1"
         points="314.1,480.4 299.9,510.6 282.5,516.8 253.3,503.1 257.9,492.4 304.1,475.8 "
         id="polygon16"
         style="fill:#a46708;fill-opacity:1" />
      <path
         class="st2"
         d="m 301.7,517.3 c -7.8,6.7 32.3,20.9 71.2,5.6 15.4,-6 47.6,-29.3 46,-34.1 0,0 -25.5,24.6 -56.5,22.3 -29.8,-2.3 -47.7,-4.9 -60.7,6.2 z"
         id="path18"
         inkscape:connector-curvature="0"
         style="fill:#f9cc01;fill-opacity:1" />
      <ellipse
         transform="matrix(0.8604,-0.5096,0.5096,0.8604,-212.1454,159.5454)"
         class="st1"
         cx="185.2"
         cy="467"
         rx="29.700001"
         ry="37.099998"
         id="ellipse20"
         style="fill:#a46708;fill-opacity:1" />
      <path
         class="st2"
         d="m 289.3,521.8 c 10.3,0.2 -11.5,36.7 -51.3,49.7 -15.7,5.1 -55.3,7.8 -57.2,3 0,0 35.3,2.7 57.7,-18.9 21.6,-20.7 33.8,-34.1 50.8,-33.8 z"
         id="path22"
         inkscape:connector-curvature="0"
         style="fill:#f9cc01;fill-opacity:1" />
      <path
         class="st3"
         d="m 297.6,527.6 c 4,11 -11.4,26.6 -34.4,34.9"
         id="path24"
         inkscape:connector-curvature="0"
         style="fill:none;stroke:#a46708;stroke-width:5;stroke-miterlimit:10;stroke-opacity:1" />
      <path
         class="st3"
         d="m 298.4,527.3 c 4,11 25.8,13.2 48.7,4.9"
         id="path26"
         inkscape:connector-curvature="0"
         style="fill:none;stroke:#a46708;stroke-width:5;stroke-miterlimit:10;stroke-opacity:1" />
    </g>
    <path
       style="color:#000000;text-indent:0;text-transform:none;direction:ltr;baseline-shift:baseline;display:inline;overflow:visible;visibility:visible;fill:#a46708;fill-opacity:1;stroke:none;enable-background:accumulate"
       d="M 36.997552,962.33817 C 22.122745,962.33817 10,974.46566 10,989.34628 c 0,14.88052 12.122741,27.00812 26.997552,27.00812 6.370776,0 12.217296,-2.2266 16.842223,-5.9393 l 4.31211,4.3138 -1.281134,1.2816 a 3.000028,3.0012007 0 0 0 0,4.2513 l 21.216826,21.1939 a 3.000028,3.0012007 0 0 0 4.249615,0 l 6.780635,-6.7833 a 3.000028,3.0012007 0 0 0 0,-4.2513 l -21.216826,-21.1939 a 3.000028,3.0012007 0 0 0 -2.468527,-0.8752 3.000028,3.0012007 0 0 0 -1.781088,0.8752 l -1.281134,1.2504 -4.280862,-4.2825 c 3.690013,-4.6199 5.905715,-10.49587 5.905715,-16.84882 0,-14.88062 -12.122741,-27.00811 -26.997553,-27.00811 z m 0,6.0018 c 11.632466,0 20.998097,9.3693 20.998097,21.00631 0,11.63702 -9.365636,21.00632 -20.998097,21.00632 -11.632455,0 -20.998096,-9.3693 -20.998096,-21.00632 0,-11.63701 9.365637,-21.00631 20.998096,-21.00631 z m 28.778641,47.23293 16.967212,16.9738 -2.53102,2.5633 -16.967212,-16.9738 z"
       marker="none"
       visibility="visible"
       display="inline"
       overflow="visible"
       id="path2"
       inkscape:connector-curvature="0" />
  </g>
</svg>
